Data types, recoding, and transformations 💽
…
# Why should you care about data types?

---

## Example: Cat lovers

A survey asked respondents their name and number of cats. The instructions said to enter the number of cats as a numerical value.

```r
cat_lovers <- read_csv("data/cat-lovers.csv")
```

```
## # A tibble: 60 x 3
##   name           number_of_cats handedness
##   <chr>          <chr>          <chr>     
## 1 Bernice Warren 0              left      
## 2 Woodrow Stone  0              left      
## 3 Willie Bass    1              left      
## 4 Tyrone Estrada 3              left      
## 5 Alex Daniels   3              left      
## 6 Jane Bates     2              left      
## # ... with 54 more rows
```
…
---

.question[
Calculate and visualize the number of bookings on any given arrival date.
]

```r
hotels %>%
  select(starts_with("arrival_"))
```

```
## # A tibble: 119,390 x 4
##   arrival_date_ye~ arrival_date_mo~ arrival_date_we~
##              <dbl> <chr>                       <dbl>
## 1             2015 July                           27
## 2             2015 July                           27
## 3             2015 July                           27
## 4             2015 July                           27
## 5             2015 July                           27
## 6             2015 July                           27
## # ... with 119,384 more rows, and 1 more variable:
## #   arrival_date_day_of_month <dbl>
```
…
.midi[

```r
library(glue)

hotels %>%
  mutate(
*   arrival_date = glue("{arrival_date_year} {arrival_date_month} {arrival_date_day_of_month}")
    ) %>% 
  select(starts_with("arrival_"))
```

```
## # A tibble: 119,390 x 5
##   arrival_date_ye~ arrival_date_mo~ arrival_date_we~
##              <dbl> <chr>                       <dbl>
## 1             2015 July                           27
## 2             2015 July                           27
## 3             2015 July                           27
## 4             2015 July                           27
## 5             2015 July                           27
## 6             2015 July                           27
## # ... with 119,384 more rows, and 2 more variables:
## #   arrival_date_day_of_month <dbl>, arrival_date <glue>
```
…
---

## Step 2. Count number of bookings per date.

.midi[

```r
hotels %>%
  mutate(arrival_date = glue("{arrival_date_year} {arrival_date_month} {arrival_date_day_of_month}")) %>%
  count(arrival_date)
```

```
## # A tibble: 793 x 2
##   arrival_date       n
## * <glue>         <int>
## 1 2015 August 1    110
## 2 2015 August 10   207
## 3 2015 August 11   117
## 4 2015 August 12   133
## 5 2015 August 13   107
## 6 2015 August 14   329
## # ... with 787 more rows
```
…
.midi[

```r
library(lubridate)

hotels %>%
  mutate(
*   arrival_date = ymd(glue("{arrival_date_year} {arrival_date_month} {arrival_date_day_of_month}"))
    ) %>% 
  select(starts_with("arrival_"))
```

```
## # A tibble: 119,390 x 5
##   arrival_date_ye~ arrival_date_mo~ arrival_date_we~
##              <dbl> <chr>                       <dbl>
## 1             2015 July                           27
## 2             2015 July                           27
## 3             2015 July                           27
## 4             2015 July                           27
## 5             2015 July                           27
## 6             2015 July                           27
## # ... with 119,384 more rows, and 2 more variables:
## #   arrival_date_day_of_month <dbl>, arrival_date <date>
```
…
---

## Step 2. Count number of bookings per date.

.midi[

```r
hotels %>%
  mutate(arrival_date = ymd(glue("{arrival_date_year} {arrival_date_month} {arrival_date_day_of_month}"))) %>% 
  count(arrival_date)
```

```
## # A tibble: 793 x 2
##   arrival_date     n
## * <date>       <int>
## 1 2015-07-01     122
## 2 2015-07-02      93
## 3 2015-07-03      56
## 4 2015-07-04      88
## 5 2015-07-05      53
## 6 2015-07-06      75
## # ... with 787 more rows
```
…
