Prediction and overfitting 🏃
…
---

## Predict outcome on the testing dataset

```r
predict(email_fit, test_data)
```

```
## # A tibble: 784 x 1
##   .pred_class
##   <fct>      
## 1 0          
## 2 0          
## 3 0          
## 4 0          
## 5 0          
## 6 0          
## # ... with 778 more rows
```

---

## Predict probabilities on the testing dataset

```r
email_pred <- predict(email_fit, test_data, type = "prob") %>%
  bind_cols(test_data %>% select(spam, time))

email_pred
```

```
## # A tibble: 784 x 4
##   .pred_0 .pred_1 spam  time               
##     <dbl>   <dbl> <fct> <dttm>             
## 1   0.994 0.00593 0     2012-01-01 12:55:06
## 2   0.872 0.128   0     2012-01-01 16:08:59
## 3   0.929 0.0710  0     2012-01-01 13:23:44
## 4   0.998 0.00219 0     2012-01-01 14:38:32
## 5   0.990 0.00963 0     2012-01-01 20:40:40
## 6   0.989 0.0105  0     2012-01-01 21:07:20
## # ... with 778 more rows
```

---

### A closer look at predictions

.pull-left-wide[

```r
email_pred %>%
  arrange(desc(.pred_1)) %>%
  print(n = 10)
```

```
## # A tibble: 784 x 4
##    .pred_0 .pred_1 spam  time               
##      <dbl>   <dbl> <fct> <dttm>             
##  1 0.00831   0.992 0     2012-02-07 23:15:26
##  2 0.269     0.731 1     2012-02-21 03:34:56
*##  3 0.284     0.716 1     2012-02-29 02:55:56
##  4 0.342     0.658 0     2012-02-03 08:25:39
##  5 0.350     0.650 0     2012-01-11 21:00:16
##  6 0.352     0.648 0     2012-01-11 13:10:06
*##  7 0.359     0.641 1     2012-01-26 05:06:55
##  8 0.359     0.641 1     2012-01-07 11:11:49
##  9 0.363     0.637 1     2012-02-08 12:01:51
## 10 0.365     0.635 1     2012-01-04 10:36:23
## # ... with 774 more rows
```
…
