Welcome to Data Science for Psychologists 🐱
…
```r
heights
```

```
## # A tibble: 50 × 2
##    elevation state      
##        <dbl> <chr>      
##  1      733. Alabama    
##  2     6168. Alaska     
##  3     3851. Arizona    
##  4      839. Arkansas   
##  5     4418. California 
##  6     4399. Colorado   
##  7      725. Connecticut
##  8      137. Delaware   
##  9      105. Florida    
## 10     1458. Georgia    
## # ℹ 40 more rows
```

---
## Taking another look

```r
arrange(heights, elevation)
```

```
## # A tibble: 50 × 2
##    elevation state       
##        <dbl> <chr>       
##  1      105. Florida     
##  2      137. Delaware    
##  3      163. Louisiana   
##  4      246. Mississippi 
##  5      247. Rhode Island
##  6      376. Illinois    
##  7      383. Indiana     
##  8      472. Ohio        
##  9      509. Iowa        
## 10      540. Missouri    
## # ℹ 40 more rows
```

---
## Taking another another look

```r
arrange(heights, desc(elevation))
```

```
## # A tibble: 50 × 2
##    elevation state     
##        <dbl> <chr>     
##  1     6168. Alaska    
##  2     4418. California
##  3     4399. Colorado  
##  4     4392. Washington
##  5     4207. Wyoming   
##  6     4205. Hawaii    
##  7     4123. Utah      
##  8     4011. New Mexico
##  9     4005. Nevada    
## 10     3901. Montana   
## # ℹ 40 more rows
```
…
---

## Dataset terminology

- Each row is an **observation**
- Each column is a **variable**

.small[

```r
starwars
```

```
## # A tibble: 87 × 15
##    name   height  mass hair_color skin_color eye_color birth_year
##    <chr>   <int> <dbl> <chr>      <chr>      <chr>          <dbl>
##  1 Luke …    172    77 blond      fair       blue            19  
##  2 C-3PO     167    75 <NA>       gold       yellow         112  
##  3 R2-D2      96    32 <NA>       white, bl… red             33  
##  4 Darth…    202   136 none       white      yellow          41.9
##  5 Leia …    150    49 brown      light      brown           19  
##  6 Owen …    178   120 brown, gr… light      blue            52  
##  7 Beru …    165    75 brown      light      blue            47  
##  8 R5-D4      97    32 <NA>       white, red red             NA  
##  9 Biggs…    183    84 black      light      brown           24  
## 10 Obi-W…    182    77 auburn, w… fair       blue-gray       57  
## # ℹ 77 more rows
## # ℹ 8 more variables: sex <chr>, gender <chr>, homeworld <chr>,
## #   species <chr>, films <list>, vehicles <list>,
## #   starships <list>, hair_color2 <fct>
```
…
- **Numerical** variables can be classified as **continuous** or **discrete** based on whether or not the variable can take on an infinite number of values or only non-negative whole numbers, respectively.
- If the variable is **categorical**, we can determine if it is **ordinal** based on whether or not the levels have a natural ordering.

---

### Remember this Data?

```r
library(tidyverse)
starwars
```

```
## # A tibble: 87 × 15
##    name   height  mass hair_color skin_color eye_color birth_year
##    <chr>   <int> <dbl> <chr>      <chr>      <chr>          <dbl>
##  1 Luke …    172    77 blond      fair       blue            19  
##  2 C-3PO     167    75 <NA>       gold       yellow         112  
##  3 R2-D2      96    32 <NA>       white, bl… red             33  
##  4 Darth…    202   136 none       white      yellow          41.9
##  5 Leia …    150    49 brown      light      brown           19  
##  6 Owen …    178   120 brown, gr… light      blue            52  
##  7 Beru …    165    75 brown      light      blue            47  
##  8 R5-D4      97    32 <NA>       white, red red             NA  
##  9 Biggs…    183    84 black      light      brown           24  
## 10 Obi-W…    182    77 auburn, w… fair       blue-gray       57  
## # ℹ 77 more rows
## # ℹ 8 more variables: sex <chr>, gender <chr>, homeworld <chr>,
## #   species <chr>, films <list>, vehicles <list>,
## #   starships <list>, hair_color2 <fct>
```
…
<img src="img/us-general-economic-characteristic-acs-2017.png" width="85%" style="display: block; margin: auto;" />

.footnote[
Source: [US Census Fact Finder, General Economic Characteristics, ACS 2017](https://factfinder.census.gov/faces/tableservices/jsf/pages/productview.xhtml?pid=ACS_17_5YR_DP03)
]

---

## Displaying vs. summarizing data

.pull-left[

```
## # A tibble: 87 × 3
##    name               height  mass
##    <chr>               <int> <dbl>
##  1 Luke Skywalker        172    77
##  2 C-3PO                 167    75
##  3 R2-D2                  96    32
##  4 Darth Vader           202   136
##  5 Leia Organa           150    49
##  6 Owen Lars             178   120
##  7 Beru Whitesun lars    165    75
##  8 R5-D4                  97    32
##  9 Biggs Darklighter     183    84
## 10 Obi-Wan Kenobi        182    77
## # ℹ 77 more rows
```
…
---

## Select a single column

View only `lead_time` (number of days between booking and arrival date):

```r
select(hotels, lead_time)
```

```
## # A tibble: 119,390 × 1
##    lead_time
##        <dbl>
##  1       342
##  2       737
##  3         7
##  4        13
##  5        14
##  6        14
##  7         0
##  8         9
##  9        85
## 10        75
## # ℹ 119,380 more rows
```
…
---

## Select a single column

.pull-left[

```r
select( 
  hotels, 
  lead_time
  )
```

```
## # A tibble: 119,390 × 1
##    lead_time
##        <dbl>
##  1       342
##  2       737
##  3         7
##  4        13
##  5        14
##  6        14
##  7         0
##  8         9
##  9        85
## 10        75
## # ℹ 119,380 more rows
```
…
---

.tip[
dplyr functions always expect a data frame and always yield a data frame.
]

```r
select(hotels, lead_time)
```

```
## # A tibble: 119,390 × 1
##    lead_time
##        <dbl>
##  1       342
##  2       737
##  3         7
##  4        13
##  5        14
##  6        14
##  7         0
##  8         9
##  9        85
## 10        75
## # ℹ 119,380 more rows
```
…
## Select multiple columns

View only the `hotel` type and `lead_time`:

--

.pull-left[

```r
select(hotels, hotel, lead_time)
```

```
## # A tibble: 119,390 × 2
##    hotel        lead_time
##    <chr>            <dbl>
##  1 Resort Hotel       342
##  2 Resort Hotel       737
##  3 Resort Hotel         7
##  4 Resort Hotel        13
##  5 Resort Hotel        14
##  6 Resort Hotel        14
##  7 Resort Hotel         0
##  8 Resort Hotel         9
##  9 Resort Hotel        85
## 10 Resort Hotel        75
## # ℹ 119,380 more rows
```
…
---

## Data wrangling, step-by-step

.pull-left[
Select:

```r
hotels %>%
  select(hotel, lead_time)
```

```
## # A tibble: 119,390 × 2
##    hotel        lead_time
##    <chr>            <dbl>
##  1 Resort Hotel       342
##  2 Resort Hotel       737
##  3 Resort Hotel         7
##  4 Resort Hotel        13
##  5 Resort Hotel        14
##  6 Resort Hotel        14
##  7 Resort Hotel         0
##  8 Resort Hotel         9
##  9 Resort Hotel        85
## 10 Resort Hotel        75
## # ℹ 119,380 more rows
```
]

--
.pull-right[
Select, then arrange:

```r
hotels %>%
  select(hotel, lead_time) %>%
  arrange(desc(lead_time))
```

```
## # A tibble: 119,390 × 2
##    hotel        lead_time
##    <chr>            <dbl>
##  1 Resort Hotel       737
##  2 Resort Hotel       709
##  3 City Hotel         629
##  4 City Hotel         629
##  5 City Hotel         629
##  6 City Hotel         629
##  7 City Hotel         629
##  8 City Hotel         629
##  9 City Hotel         629
## 10 City Hotel         629
## # ℹ 119,380 more rows
```
…
.pull-left[
- Start with the data frame `hotels`, and pass it to the `select()` function,
]
.pull-right[
.small[

```r
*hotels %>%
  select(hotel, lead_time) %>%
  arrange(desc(lead_time))
```

```
## # A tibble: 119,390 × 2
##    hotel        lead_time
##    <chr>            <dbl>
##  1 Resort Hotel       737
##  2 Resort Hotel       709
##  3 City Hotel         629
##  4 City Hotel         629
##  5 City Hotel         629
##  6 City Hotel         629
##  7 City Hotel         629
##  8 City Hotel         629
##  9 City Hotel         629
## 10 City Hotel         629
## # ℹ 119,380 more rows
```
…
.pull-left[
- Start with the data frame `hotels`, and pass it to the `select()` function,
- then we select the variables `hotel` and `lead_time`,
]
.pull-right[
.small[

```r
hotels %>%
* select(hotel, lead_time) %>%
  arrange(desc(lead_time))
```

```
## # A tibble: 119,390 × 2
##    hotel        lead_time
##    <chr>            <dbl>
##  1 Resort Hotel       737
##  2 Resort Hotel       709
##  3 City Hotel         629
##  4 City Hotel         629
##  5 City Hotel         629
##  6 City Hotel         629
##  7 City Hotel         629
##  8 City Hotel         629
##  9 City Hotel         629
## 10 City Hotel         629
## # ℹ 119,380 more rows
```
…
```r
hotels %>%
  select(hotel, lead_time) %>% 
* arrange(desc(lead_time))
```

```
## # A tibble: 119,390 × 2
##    hotel        lead_time
##    <chr>            <dbl>
##  1 Resort Hotel       737
##  2 Resort Hotel       709
##  3 City Hotel         629
##  4 City Hotel         629
##  5 City Hotel         629
##  6 City Hotel         629
##  7 City Hotel         629
##  8 City Hotel         629
##  9 City Hotel         629
## 10 City Hotel         629
## # ℹ 119,380 more rows
```
…
.huge-pink[want] .hand[to slice it, and dice it, and juice it, and process it]

---

## `select` to keep variables

.medi[

```r
hotels %>%
* select(hotel, lead_time)
```

```
## # A tibble: 119,390 × 2
##    hotel        lead_time
##    <chr>            <dbl>
##  1 Resort Hotel       342
##  2 Resort Hotel       737
##  3 Resort Hotel         7
##  4 Resort Hotel        13
##  5 Resort Hotel        14
##  6 Resort Hotel        14
##  7 Resort Hotel         0
##  8 Resort Hotel         9
##  9 Resort Hotel        85
## 10 Resort Hotel        75
## # ℹ 119,380 more rows
```
]
---

## `select` to exclude variables

.small[

```r
hotels %>%
* select(-agent)
```

```
## # A tibble: 119,390 × 31
##    hotel        is_canceled lead_time arrival_date_year
##    <chr>              <dbl>     <dbl>             <dbl>
##  1 Resort Hotel           0       342              2015
##  2 Resort Hotel           0       737              2015
##  3 Resort Hotel           0         7              2015
##  4 Resort Hotel           0        13              2015
##  5 Resort Hotel           0        14              2015
##  6 Resort Hotel           0        14              2015
##  7 Resort Hotel           0         0              2015
##  8 Resort Hotel           0         9              2015
##  9 Resort Hotel           1        85              2015
## 10 Resort Hotel           1        75              2015
## # ℹ 119,380 more rows
## # ℹ 27 more variables: arrival_date_month <chr>,
## #   arrival_date_week_number <dbl>,
## #   arrival_date_day_of_month <dbl>,
## #   stays_in_weekend_nights <dbl>, stays_in_week_nights <dbl>,
## #   adults <dbl>, children <dbl>, babies <dbl>, meal <chr>,
## #   country <chr>, market_segment <chr>, …
```
]

---

## `select` a range of variables
.medi[

```r
hotels %>%
* select(hotel:arrival_date_month)
```

```
## # A tibble: 119,390 × 5
##    hotel        is_canceled lead_time arrival_date_year
##    <chr>              <dbl>     <dbl>             <dbl>
##  1 Resort Hotel           0       342              2015
##  2 Resort Hotel           0       737              2015
##  3 Resort Hotel           0         7              2015
##  4 Resort Hotel           0        13              2015
##  5 Resort Hotel           0        14              2015
##  6 Resort Hotel           0        14              2015
##  7 Resort Hotel           0         0              2015
##  8 Resort Hotel           0         9              2015
##  9 Resort Hotel           1        85              2015
## 10 Resort Hotel           1        75              2015
## # ℹ 119,380 more rows
## # ℹ 1 more variable: arrival_date_month <chr>
```
]
---

## `select` variables with certain characteristics
.medi[

```r
hotels %>%
* select(starts_with("arrival"))
```

```
## # A tibble: 119,390 × 4
##    arrival_date_year arrival_date_month arrival_date_week_number
##                <dbl> <chr>                                 <dbl>
##  1              2015 July                                     27
##  2              2015 July                                     27
##  3              2015 July                                     27
##  4              2015 July                                     27
##  5              2015 July                                     27
##  6              2015 July                                     27
##  7              2015 July                                     27
##  8              2015 July                                     27
##  9              2015 July                                     27
## 10              2015 July                                     27
## # ℹ 119,380 more rows
## # ℹ 1 more variable: arrival_date_day_of_month <dbl>
```
]
---

## `select` variables with certain characteristics
.medi[

```r
hotels %>%
* select(ends_with("type"))
```

```
## # A tibble: 119,390 × 4
##    reserved_room_type assigned_room_type deposit_type
##    <chr>              <chr>              <chr>       
##  1 C                  C                  No Deposit  
##  2 C                  C                  No Deposit  
##  3 A                  C                  No Deposit  
##  4 A                  A                  No Deposit  
##  5 A                  A                  No Deposit  
##  6 A                  A                  No Deposit  
##  7 C                  C                  No Deposit  
##  8 C                  C                  No Deposit  
##  9 A                  A                  No Deposit  
## 10 D                  D                  No Deposit  
## # ℹ 119,380 more rows
## # ℹ 1 more variable: customer_type <chr>
```
…
---

## `arrange` in ascending / descending order

.pull-left[

```r
hotels %>%
  select(adults, children, babies) %>%
* arrange(babies)
```

```
## # A tibble: 119,390 × 3
##    adults children babies
##     <dbl>    <dbl>  <dbl>
##  1      2        0      0
##  2      2        0      0
##  3      1        0      0
##  4      1        0      0
##  5      2        0      0
##  6      2        0      0
##  7      2        0      0
##  8      2        0      0
##  9      2        0      0
## 10      2        0      0
## # ℹ 119,380 more rows
```
]
.pull-right[

```r
hotels %>%
  select(adults, children, babies) %>%
* arrange(desc(babies))
```

```
## # A tibble: 119,390 × 3
##    adults children babies
##     <dbl>    <dbl>  <dbl>
##  1      2        0     10
##  2      1        0      9
##  3      2        0      2
##  4      2        0      2
##  5      2        0      2
##  6      2        0      2
##  7      2        0      2
##  8      2        0      2
##  9      2        0      2
## 10      2        0      2
## # ℹ 119,380 more rows
```
…
---

## `filter` to select a subset of rows

.small[

```r
# bookings in City Hotels
hotels %>%
* filter(hotel == "City Hotel")
```

```
## # A tibble: 79,330 × 32
##    hotel      is_canceled lead_time arrival_date_year
##    <chr>            <dbl>     <dbl>             <dbl>
##  1 City Hotel           0         6              2015
##  2 City Hotel           1        88              2015
##  3 City Hotel           1        65              2015
##  4 City Hotel           1        92              2015
##  5 City Hotel           1       100              2015
##  6 City Hotel           1        79              2015
##  7 City Hotel           0         3              2015
##  8 City Hotel           1        63              2015
##  9 City Hotel           1        62              2015
## 10 City Hotel           1        62              2015
## # ℹ 79,320 more rows
## # ℹ 28 more variables: arrival_date_month <chr>,
## #   arrival_date_week_number <dbl>,
## #   arrival_date_day_of_month <dbl>,
## #   stays_in_weekend_nights <dbl>, stays_in_week_nights <dbl>,
## #   adults <dbl>, children <dbl>, babies <dbl>, meal <chr>,
## #   country <chr>, market_segment <chr>, …
```
…
## `filter` for many conditions at once
.medi[

```r
hotels %>%
  filter( 
*   adults == 0,
*   children >= 1
    ) %>% 
  select(adults, babies, children)
```

```
## # A tibble: 223 × 3
##    adults babies children
##     <dbl>  <dbl>    <dbl>
##  1      0      0        3
##  2      0      0        2
##  3      0      0        2
##  4      0      0        2
##  5      0      0        2
##  6      0      0        3
##  7      0      1        2
##  8      0      0        2
##  9      0      0        2
## 10      0      0        2
## # ℹ 213 more rows
```
…
## `filter` for more complex conditions
.midi[

```r
# bookings with no adults and some children or babies in the room
hotels %>%
  filter( 
    adults == 0,     
*   children >= 1 | babies >= 1     # | means or
    ) %>%
  select(adults, babies, children)
```

```
## # A tibble: 223 × 3
##    adults babies children
##     <dbl>  <dbl>    <dbl>
##  1      0      0        3
##  2      0      0        2
##  3      0      0        2
##  4      0      0        2
##  5      0      0        2
##  6      0      0        3
##  7      0      1        2
##  8      0      0        2
##  9      0      0        2
## 10      0      0        2
## # ℹ 213 more rows
```
…
---

## `mutate` to add a new variable
.medi[

```r
hotels %>%
* mutate(little_ones = children + babies) %>%
  select(children, babies, little_ones) %>%
  arrange(desc(little_ones))
```

```
## # A tibble: 119,390 × 3
##    children babies little_ones
##       <dbl>  <dbl>       <dbl>
##  1       10      0          10
##  2        0     10          10
##  3        0      9           9
##  4        2      1           3
##  5        2      1           3
##  6        2      1           3
##  7        3      0           3
##  8        2      1           3
##  9        2      1           3
## 10        3      0           3
## # ℹ 119,380 more rows
```
…
```r
# Resort Hotel
hotels %>%
  mutate(little_ones = children + babies) %>%
  filter(
    little_ones >= 1,
    hotel == "Resort Hotel"
    ) %>%
  select(hotel, little_ones)
```

```
## # A tibble: 3,929 × 2
##    hotel        little_ones
##    <chr>              <dbl>
##  1 Resort Hotel           1
##  2 Resort Hotel           2
##  3 Resort Hotel           2
##  4 Resort Hotel           2
##  5 Resort Hotel           1
##  6 Resort Hotel           1
##  7 Resort Hotel           2
##  8 Resort Hotel           2
##  9 Resort Hotel           1
## 10 Resort Hotel           1
## # ℹ 3,919 more rows
```
…
```r
# City Hotel
hotels %>%
  mutate(little_ones = children + babies) %>%
  filter(
    little_ones > 1,
    hotel == "City Hotel"
    )  %>%
  select(hotel, little_ones)
```

```
## # A tibble: 2,140 × 2
##    hotel      little_ones
##    <chr>            <dbl>
##  1 City Hotel           2
##  2 City Hotel           2
##  3 City Hotel           2
##  4 City Hotel           2
##  5 City Hotel           2
##  6 City Hotel           2
##  7 City Hotel           2
##  8 City Hotel           2
##  9 City Hotel           2
## 10 City Hotel           3
## # ℹ 2,130 more rows
```
…
