Use Cases of Large Language Models 🤖
…
# Sample text
text <- "The quick brown fox jumps over the lazy dog. The dog barks at the fox. The fox runs away quickly."

# Tokenize and create word pairs
word_pairs <- tibble(text = text) %>%
  unnest_tokens(word, text) %>%
  mutate(next_word = lead(word)) %>%
  na.omit()

word_pairs
```

```
## # A tibble: 19 × 2
##   word  next_word
##   <chr> <chr>    
## 1 the   quick    
## 2 quick brown    
## 3 brown fox      
## 4 fox   jumps    
## 5 jumps over     
## 6 over  the      
## # ℹ 13 more rows
```
…
## Create Markov Chain

.midi[

``` r
# Create a simple Markov chain
markov_chain <- word_pairs %>%
  group_by(word) %>%
  summarise(next_words = list(next_word))

markov_chain
```

```
## # A tibble: 12 × 2
##   word  next_words
##   <chr> <list>    
## 1 at    <chr [1]> 
## 2 away  <chr [1]> 
## 3 barks <chr [1]> 
## 4 brown <chr [1]> 
## 5 dog   <chr [2]> 
## 6 fox   <chr [3]> 
## # ℹ 6 more rows
```
…
