Communicating data science results effectively 📰
…
---

## Validate with at least one external data source

.medi[.pull-left-narrow[

```
## # A tibble: 3,023 × 2
##     long   lat
##    <dbl> <dbl>
##  1 -74.0  40.8
##  2 -74.0  40.8
##  3 -74.0  40.8
##  4 -74.0  40.8
##  5 -74.0  40.8
##  6 -74.0  40.8
##  7 -74.0  40.8
##  8 -74.0  40.8
##  9 -74.0  40.8
## 10 -74.0  40.8
## 11 -74.0  40.8
## 12 -74.0  40.8
## 13 -74.0  40.8
## 14 -74.0  40.8
## 15 -74.0  40.8
## # ℹ 3,008 more rows
```
…
---

## The squirrel is staring at me!

.medi[

``` r
squirrels %>%
  filter(str_detect(other_interactions, "star")) %>%
  select(shift, age, other_interactions)
```

```
## # A tibble: 11 × 3
##    shift age   other_interactions                                
##    <chr> <chr> <chr>                                             
##  1 AM    Adult staring at us                                     
##  2 PM    Adult he took 2 steps then turned and stared at me      
##  3 PM    Adult stared                                            
##  4 PM    Adult stared                                            
##  5 PM    Adult stared                                            
##  6 PM    Adult stared & then went back up tree—then ran to diffe…
##  7 PM    Adult stared at me                                      
##  8 AM    Adult approaches (saw me & came forward),runs from (sta…
##  9 AM    Adult started climbing down to me                       
## 10 PM    Adult stared at me                                      
## # ℹ 1 more row
```
…
