Web scraping 🕸
…
## Create a data frame: `imdb_top_250`

```r
imdb_top_250 <- tibble(
  title = titles, 
  year = years, 
  rating = ratings
  )

imdb_top_250
```

```
## # A tibble: 250 x 3
##    title                                              year rating
##    <chr>                                             <dbl>  <dbl>
##  1 The Shawshank Redemption                           1994    9.2
##  2 The Godfather                                      1972    9.1
##  3 The Godfather: Part II                             1974    9  
##  4 The Dark Knight                                    2008    9  
##  5 12 Angry Men                                       1957    8.9
##  6 Schindler's List                                   1993    8.9
##  7 The Lord of the Rings: The Return of the King      2003    8.9
##  8 Pulp Fiction                                       1994    8.8
##  9 The Good, the Bad and the Ugly                     1966    8.8
## 10 The Lord of the Rings: The Fellowship of the Ring  2001    8.8
## # ... with 240 more rows
```
…
- Add a variable for rank

```r
imdb_top_250 <- imdb_top_250 %>%
  mutate(rank = 1:nrow(imdb_top_250)) %>%
  relocate(rank)
```

---

```
## # A tibble: 250 x 4
##     rank title                                        year rating
##    <int> <chr>                                       <dbl>  <dbl>
##  1     1 The Shawshank Redemption                     1994    9.2
##  2     2 The Godfather                                1972    9.1
##  3     3 The Godfather: Part II                       1974    9  
##  4     4 The Dark Knight                              2008    9  
##  5     5 12 Angry Men                                 1957    8.9
##  6     6 Schindler's List                             1993    8.9
##  7     7 The Lord of the Rings: The Return of the K~  2003    8.9
##  8     8 Pulp Fiction                                 1994    8.8
##  9     9 The Good, the Bad and the Ugly               1966    8.8
## 10    10 The Lord of the Rings: The Fellowship of t~  2001    8.8
## 11    11 Fight Club                                   1999    8.8
## 12    12 Forrest Gump                                 1994    8.8
## 13    13 Inception                                    2010    8.7
## 14    14 The Lord of the Rings: The Two Towers        2002    8.7
## 15    15 Star Wars: Episode V - The Empire Strikes ~  1980    8.7
## 16    16 The Matrix                                   1999    8.6
## 17    17 Goodfellas                                   1990    8.6
## 18    18 One Flew Over the Cuckoo's Nest              1975    8.6
## 19    19 Seven Samurai                                1954    8.6
## 20    20 Se7en                                        1995    8.6
## # ... with 230 more rows
```
…
---

.question[
Which years have the most movies on the list?
]

--

```r
imdb_top_250 %>% 
  count(year, sort = TRUE)
```

```
## # A tibble: 85 x 2
##     year     n
##    <dbl> <int>
##  1  1995     8
##  2  2019     8
##  3  2004     7
##  4  1957     6
##  5  1997     6
##  6  2000     6
##  7  2009     6
##  8  2013     6
##  9  2018     6
## 10  1988     5
## # ... with 75 more rows
```
…
