Data tidying and reshaping 🧹
…
## Pivot staff data

```r
staff %>%
  pivot_longer(
    cols = -faculty_type, 
    names_to = "year", 
    values_to = "percentage"
    )
```

```
## # A tibble: 55 x 3
##    faculty_type              year  percentage
##    <chr>                     <chr>      <dbl>
##  1 Full-Time Tenured Faculty 1975        29  
##  2 Full-Time Tenured Faculty 1989        27.6
##  3 Full-Time Tenured Faculty 1993        25  
##  4 Full-Time Tenured Faculty 1995        24.8
##  5 Full-Time Tenured Faculty 1999        21.8
##  6 Full-Time Tenured Faculty 2001        20.3
##  7 Full-Time Tenured Faculty 2003        19.3
##  8 Full-Time Tenured Faculty 2005        17.8
##  9 Full-Time Tenured Faculty 2007        17.2
## 10 Full-Time Tenured Faculty 2009        16.8
## # ... with 45 more rows
```
…
## Pivot staff data, and save result

```r
staff_long <- staff %>%
  pivot_longer(
    cols = -faculty_type, 
    names_to = "year", 
    values_to = "percentage"
    )

staff_long
```

```
## # A tibble: 55 x 3
##    faculty_type              year  percentage
##    <chr>                     <chr>      <dbl>
##  1 Full-Time Tenured Faculty 1975        29  
##  2 Full-Time Tenured Faculty 1989        27.6
##  3 Full-Time Tenured Faculty 1993        25  
##  4 Full-Time Tenured Faculty 1995        24.8
##  5 Full-Time Tenured Faculty 1999        21.8
##  6 Full-Time Tenured Faculty 2001        20.3
##  7 Full-Time Tenured Faculty 2003        19.3
##  8 Full-Time Tenured Faculty 2005        17.8
##  9 Full-Time Tenured Faculty 2007        17.2
## 10 Full-Time Tenured Faculty 2009        16.8
## # ... with 45 more rows
```
…
---

## Read data 

```r
library(readxl)
rel_inc <- read_excel("data/relig-income.xlsx") # directly from Excel!
```

.small[

```
## # A tibble: 12 x 6
##    `Religious trad~ `Less than $30,~ `$30,000-$49,99~
##    <chr>                       <dbl>            <dbl>
##  1 Buddhist                    0.36              0.18
##  2 Catholic                    0.36              0.19
##  3 Evangelical Pro~            0.35              0.22
##  4 Hindu                       0.17              0.13
##  5 Historically Bl~            0.53              0.22
##  6 Jehovah's Witne~            0.48              0.25
##  7 Jewish                      0.16              0.15
##  8 Mainline Protes~            0.290             0.2 
##  9 Mormon                      0.27              0.2 
## 10 Muslim                      0.34              0.17
## # ... with 2 more rows, and 3 more variables:
## #   `$50,000-$99,999` <dbl>, `$100,000 or more` <dbl>, `Sample
## #   Size` <dbl>
```
…
## Rename columns

.midi[

```r
rel_inc %>%
  rename(
    religion = `Religious tradition`,
    n = `Sample Size`
  )
```

```
## # A tibble: 12 x 6
##    religion `Less than $30,~ `$30,000-$49,99~ `$50,000-$99,99~
##    <chr>               <dbl>            <dbl>            <dbl>
##  1 Buddhist            0.36              0.18            0.32 
##  2 Catholic            0.36              0.19            0.26 
##  3 Evangel~            0.35              0.22            0.28 
##  4 Hindu               0.17              0.13            0.34 
##  5 Histori~            0.53              0.22            0.17 
##  6 Jehovah~            0.48              0.25            0.22 
##  7 Jewish              0.16              0.15            0.24 
##  8 Mainlin~            0.290             0.2             0.28 
##  9 Mormon              0.27              0.2             0.33 
## 10 Muslim              0.34              0.17            0.290
## # ... with 2 more rows, and 2 more variables: `$100,000 or
## #   more` <dbl>, n <dbl>
```
…
```r
rel_inc %>%
  rename(
    religion = `Religious tradition`,
    n = `Sample Size`
  ) %>%
  pivot_longer(
    cols = -c(religion, n),   # all but religion and n
    names_to = "income", 
    values_to = "proportion"
  )
```

```
## # A tibble: 48 x 4
##    religion                   n income            proportion
##    <chr>                  <dbl> <chr>                  <dbl>
##  1 Buddhist                 233 Less than $30,000       0.36
##  2 Buddhist                 233 $30,000-$49,999         0.18
##  3 Buddhist                 233 $50,000-$99,999         0.32
##  4 Buddhist                 233 $100,000 or more        0.13
##  5 Catholic                6137 Less than $30,000       0.36
##  6 Catholic                6137 $30,000-$49,999         0.19
##  7 Catholic                6137 $50,000-$99,999         0.26
##  8 Catholic                6137 $100,000 or more        0.19
##  9 Evangelical Protestant  7462 Less than $30,000       0.35
## 10 Evangelical Protestant  7462 $30,000-$49,999         0.22
## # ... with 38 more rows
```
…
```
## # A tibble: 48 x 5
##    religion                 n income         proportion frequency
##    <chr>                <dbl> <chr>               <dbl>     <dbl>
##  1 Buddhist               233 Less than $30~       0.36        84
##  2 Buddhist               233 $30,000-$49,9~       0.18        42
##  3 Buddhist               233 $50,000-$99,9~       0.32        75
##  4 Buddhist               233 $100,000 or m~       0.13        30
##  5 Catholic              6137 Less than $30~       0.36      2209
##  6 Catholic              6137 $30,000-$49,9~       0.19      1166
##  7 Catholic              6137 $50,000-$99,9~       0.26      1596
##  8 Catholic              6137 $100,000 or m~       0.19      1166
##  9 Evangelical Protest~  7462 Less than $30~       0.35      2612
## 10 Evangelical Protest~  7462 $30,000-$49,9~       0.22      1642
## # ... with 38 more rows
```
…
